{
    "key": "group_5fa1667b7c3ec",
    "title": "Sélectionnez-la date :",
    "fields": [
        {
            "key": "field_5fa1668bad986",
            "label": "Date",
            "name": "date-start",
            "type": "date_picker",
            "instructions": "",
            "required": 0,
            "conditional_logic": 0,
            "wrapper": {
                "width": "",
                "class": "",
                "id": ""
            },
            "display_format": "j F Y",
            "return_format": "Ymd",
            "first_day": 1
        },
        {
            "key": "field_5fa166ea2f530",
            "label": "L'atelier a-t-il lieu sur plusieurs jours ?",
            "name": "need_second_date",
            "type": "true_false",
            "instructions": "",
            "required": 0,
            "conditional_logic": 0,
            "wrapper": {
                "width": "",
                "class": "",
                "id": ""
            },
            "message": "",
            "default_value": 0,
            "ui": 0,
            "ui_on_text": "",
            "ui_off_text": ""
        },
        {
            "key": "field_5fa167ae027e3",
            "label": "Date de fin",
            "name": "second_date",
            "type": "date_picker",
            "instructions": "",
            "required": 0,
            "conditional_logic": [
                [
                    {
                        "field": "field_5fa166ea2f530",
                        "operator": "==",
                        "value": "1"
                    }
                ]
            ],
            "wrapper": {
                "width": "",
                "class": "",
                "id": ""
            },
            "display_format": "j F Y",
            "return_format": "Ymd",
            "first_day": 1
        }
    ],
    "location": [
        [
            {
                "param": "post_type",
                "operator": "==",
                "value": "workshop"
            }
        ]
    ],
    "menu_order": 0,
    "position": "normal",
    "style": "default",
    "label_placement": "top",
    "instruction_placement": "label",
    "hide_on_screen": "",
    "active": true,
    "description": "",
    "modified": 1606837916
}