<svg width="25" height="25" viewBox="0 0 25 25" fill="none" xmlns="http://www.w3.org/2000/svg">
<rect y="21.2132" width="30" height="4" transform="rotate(-45 0 21.2132)" fill="#21A4B4"/>
<rect width="30" height="4" transform="matrix(0.707107 0.707107 0.707107 -0.707107 0 3.2132)" fill="#21A4B4"/>
</svg>
