<svg width="22" height="22" viewBox="0 0 22 22" fill="none" xmlns="http://www.w3.org/2000/svg">
<path d="M11.6826 21H2.10385C1.49403 21 1 20.5056 1 19.8961V2.10383C1 1.4941 1.49411 1 2.10385 1H19.8962C20.5058 1 21 1.4941 21 2.10383V19.8961C21 20.5056 20.5058 21 19.8962 21H14.7997V13.2548H17.3994L17.7886 10.2365H14.7997V8.30942C14.7997 7.43547 15.0424 6.83999 16.2955 6.83999L17.8939 6.8393V4.13961C17.6175 4.10283 16.6688 4.02065 15.5648 4.02065C13.2603 4.02065 11.6826 5.42729 11.6826 8.01051V10.2365H9.07629V13.2548H11.6826V21Z" fill="#10A4B5"/>
</svg>
